…
```r
?starwars

starwars %>% count(species)
```

```
## # A tibble: 38 x 2
##    species       n
##  * <chr>     <int>
##  1 Aleena        1
##  2 Besalisk      1
##  3 Cerean        1
##  4 Chagrian      1
##  5 Clawdite      1
##  6 Droid         6
##  7 Dug           1
##  8 Ewok          1
##  9 Geonosian     1
## 10 Gungan        3
## # ... with 28 more rows
```
…
```r
starwars %>% count(name, height)
```

```
## # A tibble: 87 x 3
##    name                height     n
##    <chr>                <int> <int>
##  1 Ackbar                 180     1
##  2 Adi Gallia             184     1
##  3 Anakin Skywalker       188     1
##  4 Arvel Crynyd            NA     1
##  5 Ayla Secura            178     1
##  6 Bail Prestor Organa    191     1
##  7 Barriss Offee          166     1
##  8 BB8                     NA     1
##  9 Ben Quadinaros         163     1
## 10 Beru Whitesun lars     165     1
## # ... with 77 more rows
```

```r
starwars %>% count(height, name)
```

```
## # A tibble: 87 x 3
##    height name                      n
##     <int> <chr>                 <int>
##  1     66 Yoda                      1
##  2     79 Ratts Tyerell             1
##  3     88 Wicket Systri Warrick     1
##  4     94 Dud Bolt                  1
##  5     96 R2-D2                     1
##  6     96 R4-P17                    1
##  7     97 R5-D4                     1
##  8    112 Sebulba                   1
##  9    122 Gasgano                   1
## 10    137 Watto                     1
## # ... with 77 more rows
```

```r
starwars %>% count(height)
```

```
## # A tibble: 46 x 2
##    height     n
##  *  <int> <int>
##  1     66     1
##  2     79     1
##  3     88     1
##  4     94     1
##  5     96     2
##  6     97     1
##  7    112     1
##  8    122     1
##  9    137     1
## 10    150     2
## # ... with 36 more rows
```
…
